date,country,city,dew,humidity,pm1,pm10,pm25,pressure,temperature,wind speed
2020-01-04,NP,Biratnagar,,,65,21,144,,9.2,
2020-01-05,NP,Biratnagar,8.3,98,158,22,109,879.9,6.8,0.4
2020-01-06,NP,Biratnagar,3.9,63.9,156,14,136,881.4,5.1,0.5
2020-01-07,NP,Biratnagar,5.6,79.4,160,31,153,881.6,6.3,0.5
2020-01-08,NP,Biratnagar,5.8,59,124,22,153,881.8,8.3,0.5
2020-01-09,NP,Biratnagar,7.1,58.3,173,16,121,881.3,7.8,0.6
2020-01-10,NP,Biratnagar,9.2,57.8,132,38,134,882.4,8.3,0.5
2020-01-11,NP,Biratnagar,6.2,58.6,125,37,144,882.7,7.8,0.4
2020-01-12,NP,Biratnagar,2,41.6,101,44,117,826.8,9.8,0.5
2020-01-13,NP,Biratnagar,4,48.7,51,14,155,879.6,8.6,0.5
2020-01-14,NP,Biratnagar,3.9,47.4,54,18,153,880.8,9.5,0.4
2020-01-15,NP,Biratnagar,4.7,46.8,65,22,152,825.1,8.5,0.5
2020-01-16,NP,Biratnagar,8.3,54.8,92,40,134,883.2,9.3,0.4
2020-01-17,NP,Biratnagar,9.6,83.7,65,20,121,883.6,9.6,0.5
2020-01-18,NP,Biratnagar,6.8,52.2,56,15,134,882.9,8.3,0.5
2020-01-19,NP,Biratnagar,8.1,60.5,70,27,169,882,9.2,0.6
2020-01-20,NP,Biratnagar,-42.5,0.8,75,27,157,881.3,6.9,0.3
2020-01-21,NP,Biratnagar,4.4,59,74,26,132,881.7,7,0.4
2020-01-22,NP,Biratnagar,4.6,59.1,106,44,153,882.3,6.9,0.3
2020-01-23,NP,Biratnagar,7.1,61.7,118,49,144,879.4,6.1,0.4
2020-01-24,NP,Biratnagar,4.6,68.2,152,59,109,880,6.7,0.3
2020-01-25,NP,Biratnagar,0.7,50.5,151,58,136,822.8,6.5,0.3
2020-01-26,NP,Biratnagar,2.6,52.2,148,56,153,823.3,8.2,0.3
2020-01-27,NP,Biratnagar,6.2,50.3,126,55,153,878.4,7.8,0.3
2020-01-28,NP,Biratnagar,4.2,52.4,115,45,121,878.8,8.3,0.3
2020-01-29,NP,Biratnagar,6.4,47.3,118,59,134,824.7,8.6,0.4
2020-01-30,NP,Biratnagar,7.8,60.5,165,74,169,879.4,9.1,0.3
2020-01-31,NP,Biratnagar,8,61,155,63,157,879.4,9.1,0.3
2020-02-01,NP,Biratnagar,5.8,44.1,116,59,132,824.6,8.2,0.3
2020-02-02,NP,Biratnagar,3.3,40.3,145,63,153,824.7,7.6,0.3
2020-02-03,NP,Biratnagar,4.5,50.6,135,54,144,883.3,7.5,0.3
2020-02-04,NP,Biratnagar,7.8,42.1,98,53,109,881.6,7,0.3
2020-02-05,NP,Biratnagar,0.3,37.3,124,61,136,822.6,8.2,0.4
2020-02-06,NP,Biratnagar,8.1,44.2,147,64,153,881.7,7.7,0.3
2020-02-07,NP,Biratnagar,7.9,41.6,143,63,153,883.2,8.1,0.3
2020-02-08,NP,Biratnagar,4,43.3,81,55,93,884.5,7.7,0.4
2020-02-09,NP,Biratnagar,4.6,63.3,74,39,81,885.7,7.9,0.5
2020-02-10,NP,Biratnagar,8.3,52.2,85,43,92,880,7,0.4
2020-02-11,NP,Biratnagar,3.9,50.3,83,49,92,822.8,6.9,0.5
2020-02-12,NP,Biratnagar,5.6,52.4,103,53,116,823.3,6.1,0.5
2020-02-13,NP,Biratnagar,5.8,47.3,85,51,94,878.4,6.7,0.5
2020-02-14,NP,Biratnagar,7.1,60.5,123,57,134,878.8,6.5,0.6
2020-02-15,NP,Biratnagar,9.2,61,158,65,161,824.7,8.2,0.5
2020-02-16,NP,Biratnagar,6.2,44.1,156,65,159,879.4,7.8,0.4
2020-02-17,NP,Biratnagar,2,40.3,160,64,163,879.4,8.3,0.5
2020-02-18,NP,Biratnagar,4,50.6,154,69,158,824.6,8.6,0.5
2020-02-19,NP,Biratnagar,3.9,42.1,173,88,176,824.7,9.1,0.4
2020-02-20,NP,Biratnagar,4.7,37.3,142,89,177,883.3,9.1,0.5
2020-02-21,NP,Biratnagar,8.3,44.2,155,70,158,881.6,8.2,0.4
2020-02-22,NP,Biratnagar,9.6,41.6,101,43,109,822.6,7.6,0.5
2020-02-23,NP,Biratnagar,6.8,43.3,158,28,68,881.7,7.5,0.5
2020-02-24,NP,Biratnagar,8.1,63.3,156,15,163,883.2,7,0.6
2020-02-25,NP,Biratnagar,10.5,59.6,160,21,158,884.5,8.2,0.3
2020-02-26,NP,Biratnagar,8.5,80.6,154,3,176,885.7,7.7,0.4
2020-02-27,NP,Biratnagar,7,64,173,8,177,881.9,8.1,0.3
2020-02-28,NP,Biratnagar,9.6,62.6,172,24,163,881.9,7.7,0.4
2020-02-29,NP,Biratnagar,9.8,59.3,155,41,102,881.1,7.9,0.3
2020-03-01,NP,Biratnagar,6,48.2,101,28,68,880.3,12.7,0.3
2020-03-02,NP,Biratnagar,10.4,58.7,158,18,59,880.9,12,0.3
2020-03-03,NP,Biratnagar,11.4,59.7,156,19,62,881.9,11.4,0.3
2020-03-04,NP,Biratnagar,12.4,60.7,160,25,68,882.9,14.4,0.3
2020-03-05,NP,Biratnagar,9.8,51.3,154,30,81,880.1,11.8,0.5
2020-03-06,NP,Biratnagar,9.3,52.8,173,30,81,880.5,13.4,0.6
2020-03-07,NP,Biratnagar,9.4,69.1,172,13,54,882.4,10.9,0.5
2020-03-08,NP,Biratnagar,9.3,63.9,59,19,62,879.6,11,0.8
2020-03-09,NP,Biratnagar,10.9,46.2,79,34,85,878.6,11.7,0.5
2020-03-10,NP,Biratnagar,12.4,62.1,97,44,108,879.5,12.8,0.4
2020-03-11,NP,Biratnagar,10,60.3,102,52,115,825.9,13,0.6
2020-03-12,NP,Biratnagar,11.1,56.6,158,54,104,881.8,12.5,0.5
2020-03-13,NP,Biratnagar,9.5,62.9,166,27,74,883.3,14.8,0.4
2020-03-14,NP,Biratnagar,11.1,72.7,160,23,70,881.7,14.4,0.6
2020-03-15,NP,Biratnagar,9.9,50.3,154,25,54,881.1,11.8,0.6
2020-03-16,NP,Biratnagar,5.8,38,133,23,41,882,12.1,0.3
2020-03-17,NP,Biratnagar,6,43.7,172,26,59,882.3,12.5,0.4
2020-03-18,NP,Biratnagar,7.9,44.1,155,51,97,881.1,13.6,0.5
2020-03-19,NP,Biratnagar,10.3,41.5,101,66,133,880,14.7,0.9
2020-03-20,NP,Biratnagar,16.6,41.5,158,27,76,881,11.9,0.6
